{
  "access_token": "ya29.Il-2B2Cz0UOsZC8zySjXtEvaroGr36iuzy1aQddBTmkZ8keQ854isDgqmrewOZCCBPrA_hgTqKUvP-8SRbc6duy9Rte5WFD2GFj5mhjY5BkSorJ39L2V-gwlMQN9qGjSZw",
  "refresh_token": "1//0e7hrwNyhwicPCgYIARAAGA4SNwF-L9IrnF2xkoWNfNF1kiKHOV_QNO_8KsdsMlB4sAg-bgLLtPPQadh7PvNC6YQCQDvXpzbMA3U",
  "scope": "https://www.googleapis.com/auth/drive.file https://www.googleapis.com/auth/drive https://www.googleapis.com/auth/drive.appdata",
  "token_type": "Bearer",
  "expiry_date": 1576815722232
}
