{
  "swagger": "3.0",
  "openapi": "3.0.2",
  "info": {
    "title": "Apis References",
    "description": "",
    "version": "1.0"
  },
  "servers": [
    {
      "url": "https://mytutor-backend.herokuapp.com",
      "description": "Apis References"
    }
  ],
  "produces": ["application/json"],
  "components": {
    "schemas": {
      "USER_ROLES": {
        "type": "string",
        "enum": ["finder", "tutor"]
      },
      "GENDER": {
        "type": "string",
        "enum": ["male", "female", "other"]
      },
      "Tutor": {
        "type": "object",
        "properties": {
          "id": {
            "type": "number"
          },
          "job": {
            "type": "string"
          },
          "description": {
            "type": "string"
          },
          "wallet": {
            "type": "number"
          },
          "rate": {
            "type": "number"
          },
          "numberOfEvaluation": {
            "type": "number"
          },
          "tuitionPerHour": {
            "type": "number"
          }
        }
      },
      "User": {
        "type": "object",
        "properties": {
          "id": {
            "type": "number"
          },
          "displayName": {
            "type": "string"
          },
          "gender": {
            "$ref": "#/components/schemas/GENDER"
          },
          "birthday": {
            "type": "string"
          },
          "avatar": {
            "type": "string"
          },
          "email": {
            "type": "string"
          },
          "phone": {
            "type": "string"
          },
          "role": {
            "$ref": "#/components/schemas/USER_ROLES"
          },
          "address": {
            "$ref": "#/components/schemas/UserAddress"
          }
        }
      },
      "Skill": {
        "type": "object",
        "properties": {
          "id": {
            "type": "number"
          },
          "title": {
            "type": "string"
          }
        }
      },
      "UserAddress": {
        "type": "object",
        "properties": {
          "province": {
            "type": "string"
          },
          "ward": {
            "type": "string"
          },
          "detail": {
            "type": "string"
          }
        }
      },
      "SignInDTO": {
        "required": true,
        "type": "object",
        "properties": {
          "username": {
            "required": true,
            "type": "string"
          },
          "password": {
            "required": true,
            "type": "string"
          }
        }
      },
      "SignUpUserDTO": {
        "type": "object",
        "required": true,
        "properties": {
          "username": {
            "required": true,
            "type": "string"
          },
          "password": {
            "required": true,
            "type": "string"
          },
          "displayName": {
            "required": true,
            "type": "string"
          },
          "role": {
            "required": true,
            "$ref": "#/components/schemas/USER_ROLES"
          },
          "email": {
            "required": true,
            "type": "string",
            "format": "email"
          }
        }
      },
      "SignUpUserWithFacebookDTO": {
        "type": "object",
        "required": true,
        "properties": {
          "username": {
            "required": true,
            "type": "string"
          },
          "password": {
            "required": true,
            "type": "string"
          },
          "displayName": {
            "required": true,
            "type": "string"
          },
          "role": {
            "required": true,
            "$ref": "#/components/schemas/USER_ROLES"
          },
          "email": {
            "required": false,
            "type": "string",
            "format": "email"
          },
          "facebookId": {
            "required": true,
            "type": "string"
          }
        }
      },
      "SignUpUserWithGoogleDTO": {
        "type": "object",
        "required": true,
        "properties": {
          "username": {
            "required": true,
            "type": "string"
          },
          "password": {
            "required": true,
            "type": "string"
          },
          "displayName": {
            "required": true,
            "type": "string"
          },
          "role": {
            "required": true,
            "$ref": "#/components/schemas/USER_ROLES"
          },
          "email": {
            "required": true,
            "type": "string",
            "format": "email"
          },
          "googleId": {
            "required": true,
            "type": "string"
          }
        }
      },
      "SignInRes": {
        "required": true,
        "type": "object",
        "properties": {
          "token": {
            "required": true,
            "type": "string"
          },
          "message": {
            "required": true,
            "type": "string"
          },
          "metadata": {
            "required": false,
            "type": "object",
            "properties": {
              "isNew": {
                "required": true,
                "type": "boolean"
              },
              "role": {
                "required": true,
                "$ref": "#components/schemas/USER_ROLES"
              }
            }
          }
        }
      },
      "SignUpSocialAccountRes": {
        "required": true,
        "type": "object",
        "properties": {
          "status": {
            "required": true,
            "type": "boolean"
          },
          "message": {
            "required": true,
            "type": "string"
          },
          "metadata": {
            "required": false,
            "type": "object",
            "properties": {
              "isNew": {
                "required": true,
                "type": "boolean"
              },
              "role": {
                "required": true,
                "$ref": "#components/schemas/USER_ROLES"
              },
              "authorizated": {
                "required": true,
                "type": "boolean"
              },
              "lock": {
                "required": true,
                "type": "boolean"
              }
            }
          }
        }
      },
      "ProfileRes": {
        "required": true,
        "type": "object",
        "properties": {
          "id": {
            "type": "number"
          },
          "displayName": {
            "type": "string"
          },
          "email": {
            "type": "string"
          },
          "phone": {
            "type": "string"
          },
          "birthday": {
            "type": "string",
            "format": "YYYY-MM-DD"
          },
          "gender": {
            "$ref": "#/components/schemas/GENDER"
          },
          "role": {
            "$ref": "#/components/schemas/USER_ROLES"
          },
          "avatar": {
            "type": "string"
          },
          "address": {
            "$ref": "#/components/schemas/UserAddress"
          }
        }
      },
      "UpdateProfileDTO": {
        "required": true,
        "type": "object",
        "properties": {
          "displayName": {
            "type": "string"
          },
          "email": {
            "type": "string"
          },
          "phone": {
            "type": "string"
          },
          "birthday": {
            "type": "string",
            "format": "YYYY-MM-DD"
          },
          "gender": {
            "$ref": "#/components/schemas/GENDER"
          },
          "province": {
            "type": "string"
          },
          "ward": {
            "type": "string"
          },
          "detail": {
            "type": "string"
          }
        }
      },
      "TutorInfoRes": {
        "required": true,
        "type": "object",
        "properties": {
          "id": {
            "type": "number"
          },
          "role": {
            "$ref": "#/components/schemas/USER_ROLES"
          },
          "tutor": {
            "$ref": "#/components/schemas/Tutor"
          },
          "skills": {
            "type": "array",
            "items": {
              "$ref": "#/components/schemas/Skill"
            }
          }
        }
      },
      "UpdateTutorInfoDTO": {
        "required": true,
        "type": "object",
        "properties": {
          "description": {
            "type": "string"
          },
          "job": {
            "type": "string"
          },
          "tuitionPerHour": {
            "type": "number"
          },
          "skills": {
            "type": "array",
            "items": {
              "type": "string"
            }
          }
        }
      },
      "GetTutorsDTO": {
        "required": true,
        "type": "object",
        "properties": {
          "page": {
            "type": "number"
          },
          "pageSize": {
            "type": "number"
          },
          "skills": {
            "type": "string"
          },
          "minTuition": {
            "type": "number"
          },
          "maxTuition": {
            "type": "number"
          },
          "increaseTuition": {
            "type": "boolean"
          },
          "province": {
            "type": "string"
          },
          "ward": {
            "type": "string"
          }
        }
      },
      "TutorItem": {
        "required": true,
        "type": "object",
        "properties": {
          "id": {
            "type": "number"
          },
          "displayName": {
            "type": "string"
          },
          "avatar": {
            "type": "string"
          },
          "role": {
            "$ref": "#/components/schemas/USER_ROLES"
          },
          "address": {
            "$ref": "#/components/schemas/UserAddress"
          },
          "tutor": {
            "$ref": "#/components/schemas/Tutor"
          },
          "skills": {
            "type": "array",
            "items": {
              "$ref": "#/components/schemas/Skill"
            }
          }
        }
      },
      "Contract": {
        "type": "object",
        "properties": {
          "id": {
            "type": "number"
          },
          "teach": {
            "type": "string"
          },
          "status": {
            "type": "number"
          },
          "numberOfSession": {
            "type": "number"
          },
          "numberOfHourPerSession": {
            "type": "number"
          },
          "tuitionOfFinder": {
            "type": "number"
          },
          "confirmedTuition": {
            "type": "number"
          },
          "createdDate": {
            "type": "string"
          },
          "updatedDate": {
            "type": "string"
          },
          "finder": {
            "$ref": "#/components/schemas/User"
          },
          "tutor": {
            "$ref": "#/components/schemas/User"
          }
        }
      },
      "CreateContractDTO": {
        "type": "object",
        "required": true,
        "properties": {
          "teach": {
            "type": "string"
          },
          "tuition": {
            "type": "number"
          },
          "tutorId": {
            "type": "number"
          }
        }
      },
      "UpdateContractFinderDTO": {
        "type": "object",
        "required": true,
        "properties": {
          "teach": {
            "type": "string"
          },
          "tuition": {
            "type": "number"
          }
        }
      },
      "UpdateContractTutorDTO": {
        "type": "object",
        "required": true,
        "properties": {
          "tuition": {
            "type": "number"
          },
          "numberOfSession": {
            "type": "number"
          },
          "numberOfHourPerSession": {
            "type": "number"
          }
        }
      }
    }
  },
  "paths": {
    "/auth/sign-in": {
      "post": {
        "tags": ["Auth apis"],
        "description": "Sign in",
        "parameters": [],
        "requestBody": {
          "required": true,
          "content": {
            "application/json": {
              "schema": {
                "$ref": "#/components/schemas/SignInDTO"
              }
            }
          }
        },
        "responses": {
          "400": {
            "description": "Bad request"
          },
          "401": {
            "description": "unauthorizated"
          },
          "403": {
            "description": "Locked account"
          },
          "403 -": {
            "description": "Account has not authorizated email yet",
            "content": {
              "application/json": {
                "schema": {
                  "type": "object",
                  "properties": {
                    "unauthorizatedEmail": {
                      "type": "boolean",
                      "default": true
                    }
                  }
                },
                "example": {
                  "unauthorizatedEmail": true
                }
              }
            }
          },
          "200": {
            "description": "Sign in success",
            "content": {
              "application/json": {
                "schema": {
                  "type": "object",
                  "$ref": "#/components/schemas/SignInRes"
                },
                "example": {
                  "token": "eyJhbGciOiJIUzI1NiIsInR5cCI6IkpXVCJ9.eyJpZCI6NSwidXNlcm5hbWUiOiJ0dXRvciIsInBhc3N3b3JkIjoiJDJiJDEwJDlhczZNRDFxcm91YkVYL1F4N3pBYmVqTHFFMzRETzdmUURENHVRajFIak44STlYbngvYWZxIiwicm9sZSI6InR1dG9yIiwibG9jayI6ZmFsc2UsImF1dGhvcml6YXRlZCI6dHJ1ZSwiaXNOZXciOnRydWUsImlhdCI6MTU3NjM5NzQ5Nn0.SRg2xR14N9zvqs-IwrWrvfkGrGLcsAdkHXPXCp1XwQ8",
                  "message": "Đăng nhập thành công",
                  "metadata": {
                    "isNew": true,
                    "role": "finder"
                  }
                }
              }
            }
          }
        }
      }
    },
    "/auth/sign-up": {
      "post": {
        "tags": ["Auth apis"],
        "description": "Sign up finder and tutor",
        "parameters": [],
        "requestBody": {
          "required": true,
          "content": {
            "application/json": {
              "schema": {
                "$ref": "#/components/schemas/SignUpUserDTO"
              }
            }
          }
        },
        "responses": {
          "400": {
            "description": "Bad request"
          },
          "200": {
            "description": "Call api success",
            "content": {
              "application/json": {
                "schema": {
                  "type": "object",
                  "properties": {
                    "status": {
                      "type": "boolean"
                    },
                    "message": {
                      "type": "string"
                    }
                  }
                },
                "examples": [
                  {
                    "description": "username is exists",
                    "value": {
                      "status": false,
                      "message": "Username đã tồn tại"
                    }
                  },
                  {
                    "description": "Email is registered",
                    "value": {
                      "status": false,
                      "message": "Email này đã được đăng ký. Hãy chọn email khác."
                    }
                  },
                  {
                    "description": "Sign up success",
                    "value": {
                      "status": true,
                      "message": "Đăng ký thành công"
                    }
                  }
                ]
              }
            }
          }
        }
      }
    },
    "/auth/facebook": {
      "get": {
        "tags": ["Auth apis"],
        "description": "Sign in, sign up with facebook account"
      }
    },
    "/auth/google": {
      "get": {
        "tags": ["Auth apis"],
        "description": "Sign in, sign up with google account"
      }
    },
    "/auth/facebook/sign-up": {
      "post": {
        "tags": ["Auth apis"],
        "description": "Sign up new account with facebook account",
        "requestBody": {
          "required": true,
          "content": {
            "application/json": {
              "schema": {
                "$ref": "#/components/schemas/SignUpUserWithFacebookDTO"
              }
            }
          }
        },
        "responses": {
          "400": {
            "description": "Bad request"
          },
          "200": {
            "description": "Call api success",
            "content": {
              "application/json": {
                "schema": {
                  "type": "object",
                  "$ref": "#/components/schemas/SignUpSocialAccountRes"
                },
                "examples": [
                  {
                    "value": {
                      "status": false,
                      "message": "Username đã tồn tại"
                    }
                  },
                  {
                    "value": {
                      "status": false,
                      "message": "Đã có tài khoản tồn tại với tài khoản facebook này"
                    }
                  },
                  {
                    "value": {
                      "status": true,
                      "message": "Đăng ký thành công",
                      "metadata": {
                        "role": "finder",
                        "lock": false,
                        "authorizated": true,
                        "isNew": true
                      }
                    }
                  }
                ]
              }
            }
          }
        }
      }
    },
    "/auth/google/sign-up": {
      "post": {
        "tags": ["Auth apis"],
        "description": "Sign up new account with google account",
        "requestBody": {
          "required": true,
          "content": {
            "application/json": {
              "schema": {
                "$ref": "#/components/schemas/SignUpUserWithGoogleDTO"
              }
            }
          }
        },
        "responses": {
          "400": {
            "description": "Bad request"
          },
          "200": {
            "description": "Call api success",
            "content": {
              "application/json": {
                "schema": {
                  "type": "object",
                  "$ref": "#/components/schemas/SignUpSocialAccountRes"
                },
                "examples": [
                  {
                    "value": {
                      "status": false,
                      "message": "Username đã tồn tại"
                    }
                  },
                  {
                    "value": {
                      "status": false,
                      "message": "Đã có tài khoản tồn tại với tài khoản google này"
                    }
                  },
                  {
                    "value": {
                      "status": true,
                      "message": "Đăng ký thành công",
                      "metadata": {
                        "role": "finder",
                        "lock": false,
                        "authorizated": true,
                        "isNew": true
                      }
                    }
                  }
                ]
              }
            }
          }
        }
      }
    },
    "/auth/check-exists-username": {
      "post": {
        "tags": ["Auth apis"],
        "description": "Check username whether it exists",
        "requestBody": {
          "required": true,
          "content": {
            "application/json": {
              "schema": {
                "required": true,
                "type": "object",
                "properties": {
                  "username": {
                    "required": true,
                    "type": "string"
                  }
                }
              }
            }
          }
        },
        "responses": {
          "400": {
            "description": "Bad request"
          },
          "200": {
            "description": "Call api success",
            "content": {
              "application/json": {
                "schema": {
                  "type": "object",
                  "properties": {
                    "isExists": {
                      "type": "boolean"
                    }
                  }
                }
              }
            }
          }
        }
      }
    },
    "/auth/me/profile": {
      "get": {
        "tags": ["Auth apis"],
        "description": "Get profile of user (finder and tutor)",
        "parameters": [],
        "security": {
          "type": "http",
          "name": "Authorization",
          "bearerFormat": "Bearer",
          "schema": "bearer"
        },
        "requestBody": {},
        "responses": {
          "401": {
            "description": "Unauthorizated"
          },
          "403": {
            "description": "Locked account"
          },
          "403 -": {
            "description": "Account has not authorizated email yet",
            "content": {
              "application/json": {
                "schema": {
                  "type": "object",
                  "properties": {
                    "unauthorizatedEmail": {
                      "type": "boolean",
                      "default": true
                    }
                  }
                },
                "example": {
                  "unauthorizatedEmail": true
                }
              }
            }
          },
          "200": {
            "description": "Call api success",
            "content": {
              "application/json": {
                "schema": {
                  "type": "object",
                  "properties": {
                    "profile": {
                      "$ref": "#/components/schemas/ProfileRes"
                    }
                  }
                },
                "example": {
                  "profile": {
                    "id": 1,
                    "displayName": "nguyen van a",
                    "phone": "0909090909",
                    "email": "demo@gmail.com",
                    "avatar": "avatar.png",
                    "gender": "male",
                    "role": "finder",
                    "birthday": "2019-12-12",
                    "address": {
                      "province": "hcm",
                      "ward": "q5",
                      "detail": "227, nguyen van cu"
                    }
                  }
                }
              }
            }
          }
        }
      },
      "post": {
        "tags": ["Auth apis"],
        "description": "Update profile of user (finder and tutor)",
        "parameters": [],
        "security": {
          "type": "http",
          "name": "Authorization",
          "bearerFormat": "Bearer",
          "schema": "bearer"
        },
        "requestBody": {
          "required": true,
          "content": {
            "application/json": {
              "schema": {
                "$ref": "#/components/schemas/UpdateProfileDTO"
              },
              "example": {
                "displayName": "Nguyen Huu Tu",
                "birthday": "1998-12-30",
                "email": "nguyenhuutu@gmail.com",
                "phone": "0909090909",
                "gender": "male",
                "province": "1",
                "ward": "2",
                "detail": "227, nguyen van cu"
              }
            }
          }
        },
        "responses": {
          "401": {
            "description": "Unauthorizated"
          },
          "403": {
            "description": "Locked account"
          },
          "403 -": {
            "description": "Account has not authorizated email yet",
            "content": {
              "application/json": {
                "schema": {
                  "type": "object",
                  "properties": {
                    "unauthorizatedEmail": {
                      "type": "boolean",
                      "default": true
                    }
                  }
                },
                "example": {
                  "unauthorizatedEmail": true
                }
              }
            }
          },
          "200": {
            "description": "Call api success",
            "content": {
              "application/json": {
                "schema": {
                  "type": "object",
                  "properties": {
                    "status": {
                      "type": "boolean"
                    },
                    "profile": {
                      "$ref": "#/components/schemas/ProfileRes"
                    },
                    "message": {
                      "type": "string"
                    }
                  }
                },
                "examples": [
                  {
                    "description": "Update profile success",
                    "value": {
                      "status": true,
                      "profile": {
                        "id": 1,
                        "displayName": "nguyen van a",
                        "phone": "0909090909",
                        "email": "demo@gmail.com",
                        "avatar": "avatar.png",
                        "gender": "male",
                        "role": "finder",
                        "birthday": "2019-12-30",
                        "address": {
                          "province": "hcm",
                          "ward": "q5",
                          "detail": "227, nguyen van cu"
                        }
                      },
                      "message": "Cập nhật thông tin cá nhân thành công"
                    }
                  },
                  {
                    "description": "Email is registered",
                    "value": {
                      "status": false,
                      "profile": null,
                      "message": "Email này đã được đăng ký. Hãy chọn email khác."
                    }
                  }
                ]
              }
            }
          }
        }
      }
    },
    "/auth/me/avatar": {
      "post": {
        "tags": ["Auth apis"],
        "description": "Update avatar of user (finder and tutor)",
        "parameters": [],
        "security": {
          "type": "http",
          "name": "Authorization",
          "bearerFormat": "Bearer",
          "schema": "bearer"
        },
        "requestBody": {
          "required": true,
          "content": {
            "multipart/form-data": {
              "schema": {
                "type": "object",
                "properties": {
                  "avatar": {
                    "type": "string",
                    "format": "binary"
                  }
                }
              }
            }
          }
        },
        "responses": {
          "401": {
            "description": "Unauthorizated"
          },
          "403": {
            "description": "Locked account"
          },
          "403 -": {
            "description": "Account has not authorizated email yet",
            "content": {
              "application/json": {
                "schema": {
                  "type": "object",
                  "properties": {
                    "unauthorizatedEmail": {
                      "type": "boolean",
                      "default": true
                    }
                  }
                },
                "example": {
                  "unauthorizatedEmail": true
                }
              }
            }
          },
          "200": {
            "description": "Call api success",
            "content": {
              "application/json": {
                "schema": {
                  "type": "object",
                  "properties": {
                    "avatar": {
                      "type": "string"
                    }
                  }
                },
                "examples": [
                  {
                    "description": "Update avatar success",
                    "value": {
                      "avatar": "https://drive.google.com/uc?id=1d4DWZTtLv2DURykHjqMkK6QWVB4QxZ8D&export=download"
                    }
                  },
                  {
                    "description": "Update avatar failed",
                    "value": {
                      "avatar": null
                    }
                  }
                ]
              }
            }
          }
        }
      }
    },
    "/auth/me/tutor-info": {
      "get": {
        "tags": ["Auth apis"],
        "description": "Get tutor info",
        "parameters": [],
        "security": {
          "type": "http",
          "name": "Authorization",
          "bearerFormat": "Bearer",
          "schema": "bearer"
        },
        "requestBody": {},
        "responses": {
          "401": {
            "description": "Unauthorizated"
          },
          "403": {
            "description": "Locked account"
          },
          "403 -": {
            "description": "Account has not authorizated email yet",
            "content": {
              "application/json": {
                "schema": {
                  "type": "object",
                  "properties": {
                    "unauthorizatedEmail": {
                      "type": "boolean",
                      "default": true
                    }
                  }
                },
                "example": {
                  "unauthorizatedEmail": true
                }
              }
            }
          },
          "403 - -": {
            "description": "Account do not allow with this role",
            "content": {
              "application/json": {
                "schema": {
                  "type": "object",
                  "properties": {
                    "roleNotAllowed": {
                      "type": "boolean",
                      "default": true
                    }
                  }
                },
                "example": {
                  "roleNotAllowed": true
                }
              }
            }
          },
          "200": {
            "description": "Call api success",
            "content": {
              "application/json": {
                "schema": {
                  "type": "object",
                  "properties": {
                    "tutorInfo": {
                      "$ref": "#/components/schemas/TutorInfoRes"
                    }
                  }
                },
                "example": {
                  "tutorInfo": {
                    "id": 1,
                    "role": "tutor",
                    "tutor": {
                      "id": 1,
                      "job": "student",
                      "description": "description",
                      "tuitionPerHour": 200,
                      "rate": 4.5,
                      "numberOfEvaluation": 10,
                      "wallet": 1000000
                    },
                    "skills": [
                      {
                        "id": 1,
                        "title": "Toan"
                      },
                      {
                        "id": 2,
                        "title": "Ly"
                      }
                    ]
                  }
                }
              }
            }
          }
        }
      },
      "post": {
        "tags": ["Auth apis"],
        "description": "Update tutor info",
        "parameters": [],
        "security": {
          "type": "http",
          "name": "Authorization",
          "bearerFormat": "Bearer",
          "schema": "bearer"
        },
        "requestBody": {
          "required": true,
          "content": {
            "application/json": {
              "type": "object",
              "$ref": "#/components/schemas/UpdateTutorInfoDTO"
            }
          }
        },
        "responses": {
          "401": {
            "description": "Unauthorizated"
          },
          "403": {
            "description": "Locked account"
          },
          "403 -": {
            "description": "Account has not authorizated email yet",
            "content": {
              "application/json": {
                "schema": {
                  "type": "object",
                  "properties": {
                    "unauthorizatedEmail": {
                      "type": "boolean",
                      "default": true
                    }
                  }
                },
                "example": {
                  "unauthorizatedEmail": true
                }
              }
            }
          },
          "403 - -": {
            "description": "Account do not allow with this role",
            "content": {
              "application/json": {
                "schema": {
                  "type": "object",
                  "properties": {
                    "roleNotAllowed": {
                      "type": "boolean",
                      "default": true
                    }
                  }
                },
                "example": {
                  "roleNotAllowed": true
                }
              }
            }
          },
          "200": {
            "description": "Call api success",
            "content": {
              "application/json": {
                "schema": {
                  "type": "object",
                  "properties": {
                    "tutorInfo": {
                      "$ref": "#/components/schemas/TutorInfoRes"
                    }
                  }
                },
                "example": {
                  "tutorInfo": {
                    "id": 1,
                    "role": "tutor",
                    "tutor": {
                      "id": 1,
                      "job": "student",
                      "description": "description",
                      "tuitionPerHour": 200,
                      "rate": 4.5,
                      "numberOfEvaluation": 10,
                      "wallet": 1000000
                    },
                    "skills": [
                      {
                        "id": 1,
                        "title": "Toan"
                      },
                      {
                        "id": 2,
                        "title": "Ly"
                      }
                    ]
                  }
                }
              }
            }
          }
        }
      }
    },
    "/auth/send-authorization-email": {
      "post": {
        "tags": ["Auth apis"],
        "description": "Send authorization link to user's email",
        "parameters": [],
        "requestBody": {
          "required": true,
          "content": {
            "application/json": {
              "schema": {
                "$ref": "#/components/schemas/SignInDTO"
              }
            }
          }
        },
        "responses": {
          "200": {
            "description": "Send email successfully",
            "content": {
              "application/json": {
                "schema": {
                  "type": "object",
                  "properties": {
                    "status": {
                      "type": "boolean"
                    },
                    "message": {
                      "type": "string"
                    }
                  }
                }
              }
            }
          }
        }
      }
    },

    "/tutors": {
      "get": {
        "tags": ["Tutor apis"],
        "description": "Get tutors list by some field",
        "parameters": [
          {
            "name": "province",
            "in": "query",
            "schema": { "type": "string" }
          },
          {
            "name": "ward",
            "in": "query",
            "schema": {
              "type": "string"
            }
          },
          {
            "name": "page",
            "in": "query",
            "schema": {
              "type": "number"
            }
          },
          {
            "name": "pageSize",
            "in": "query",
            "schema": {
              "type": "number"
            }
          },
          {
            "name": "skills",
            "in": "query",
            "schema": {
              "type": "string"
            }
          },
          {
            "name": "increaseTuition",
            "in": "query",
            "schema": {
              "type": "boolean"
            }
          },
          {
            "name": "minTuition",
            "in": "query",
            "schema": {
              "type": "number"
            }
          },
          {
            "name": "maxTuition",
            "in": "query",
            "schema": {
              "type": "number"
            }
          }
        ],
        "requestBody": {},
        "responses": {
          "200": {
            "content": {
              "application/json": {
                "schema": {
                  "type": "object",
                  "properties": {
                    "tutors": {
                      "type": "array",
                      "items": {
                        "$ref": "#/components/schemas/TutorItem"
                      }
                    }
                  }
                },
                "example": {
                  "tutors": [
                    {
                      "id": 15,
                      "avatar": null,
                      "displayName": "Nguyen Huu Tu",
                      "role": "tutor",
                      "tutor": {
                        "id": 6,
                        "job": "student",
                        "description": null,
                        "tuitionPerHour": 100,
                        "wallet": 0,
                        "rate": 4.5,
                        "numberOfEvaluation": 10
                      },
                      "address": {
                        "id": 14,
                        "province": "",
                        "ward": null,
                        "detail": null
                      },
                      "skills": [
                        {
                          "id": 1,
                          "title": "html"
                        },
                        {
                          "id": 2,
                          "title": "php"
                        }
                      ]
                    }
                  ]
                }
              }
            }
          }
        }
      }
    },
    "/tutors/:userId": {
      "get": {
        "tags": ["Tutor apis"],
        "description": "Get tutor detail by user id",
        "parameters": [
          {
            "name": "userId",
            "in": "path",
            "required": true,
            "schema": {
              "type": "string"
            }
          }
        ],
        "requestBody": {},
        "responses": {
          "200": {
            "content": {
              "application/json": {
                "schema": {
                  "type": "object",
                  "properties": {
                    "tutor": {
                      "$ref": "#/components/schemas/TutorItem"
                    }
                  }
                },
                "example": {
                  "tutor": {
                    "id": 15,
                    "avatar": null,
                    "displayName": "Nguyen Huu Tu",
                    "role": "tutor",
                    "tutor": {
                      "id": 6,
                      "job": "student",
                      "description": null,
                      "tuitionPerHour": 100,
                      "wallet": 0,
                      "rate": 4.5,
                      "numberOfEvaluation": 10
                    },
                    "address": {
                      "id": 14,
                      "province": "",
                      "ward": null,
                      "detail": null
                    },
                    "skills": [
                      {
                        "id": 1,
                        "title": "html"
                      },
                      {
                        "id": 2,
                        "title": "php"
                      }
                    ]
                  }
                }
              }
            }
          }
        }
      }
    },
    "/skills": {
      "get": {
        "tags": ["skill apis"],
        "description": "Get skill list",
        "parameters": [],
        "requestBody": {},
        "responses": {
          "200": {
            "content": {
              "application/json": {
                "schema": {
                  "type": "object",
                  "properties": {
                    "skills": {
                      "type": "array",
                      "items": {
                        "$ref": "#/components/schemas/Skill"
                      }
                    }
                  }
                },
                "example": {
                  "skills": [
                    {
                      "id": 6,
                      "title": "javascript"
                    },
                    {
                      "id": 33,
                      "title": "html"
                    },
                    {
                      "id": 34,
                      "title": "mysql"
                    }
                  ]
                }
              }
            }
          }
        }
      },
      "post": {
        "tags": ["skill apis"],
        "description": "Create new skill",
        "parameters": [],
        "requestBody": {
          "required": true,
          "content": {
            "application/json": {
              "type": "object",
              "properties": {
                "title": {
                  "type": "string"
                }
              }
            }
          }
        },
        "responses": {
          "400": {
            "description": "Bad request"
          },
          "401": {
            "description": "unauthorizated"
          },
          "403": {
            "description": "Locked account"
          },
          "403 -": {
            "description": "Account has not authorizated email yet",
            "content": {
              "application/json": {
                "schema": {
                  "type": "object",
                  "properties": {
                    "unauthorizatedEmail": {
                      "type": "boolean",
                      "default": true
                    }
                  }
                },
                "example": {
                  "unauthorizatedEmail": true
                }
              }
            }
          },
          "403 - -": {
            "description": "Account do not allow with this role",
            "content": {
              "application/json": {
                "schema": {
                  "type": "object",
                  "properties": {
                    "roleNotAllowed": {
                      "type": "boolean",
                      "default": true
                    }
                  }
                },
                "example": {
                  "roleNotAllowed": true
                }
              }
            }
          },
          "200": {
            "content": {
              "application/json": {
                "schema": {
                  "type": "object",
                  "properties": {
                    "status": {
                      "type": "boolean"
                    },
                    "skill": {
                      "$ref": "#/components/schemas/Skill"
                    }
                  }
                },
                "examples": [
                  {
                    "value": {
                      "status": true,
                      "skill": {
                        "id": 6,
                        "title": "javascript"
                      }
                    }
                  },
                  {
                    "value": {
                      "status": false,
                      "skill": null
                    }
                  }
                ]
              }
            }
          }
        }
      }
    },
    "/contracts/me": {
      "get": {
        "tags": ["contract apis"],
        "description": "Get contract list",
        "parameters": [
          {
            "name": "page",
            "in": "query",
            "type": "number"
          },
          {
            "name": "pageSize",
            "in": "query",
            "type": "number"
          }
        ],
        "requestBody": {},
        "responses": {
          "401": {
            "description": "unauthorizated"
          },
          "403": {
            "description": "Locked account"
          },
          "403 -": {
            "description": "Account has not authorizated email yet",
            "content": {
              "application/json": {
                "schema": {
                  "type": "object",
                  "properties": {
                    "unauthorizatedEmail": {
                      "type": "boolean",
                      "default": true
                    }
                  }
                },
                "example": {
                  "unauthorizatedEmail": true
                }
              }
            }
          },
          "200": {
            "content": {
              "application/json": {
                "schema": {
                  "type": "object",
                  "properties": {
                    "page": {
                      "type": "number"
                    },
                    "totalPage": {
                      "type": "number"
                    },
                    "contracts": {
                      "type": "array",
                      "items": {
                        "$ref": "#/components/schemas/Contract"
                      }
                    }
                  }
                },
                "example": {
                  "page": 1,
                  "totalPage": 1,
                  "contracts": [
                    {
                      "id": 1,
                      "status": 1,
                      "tuitionOfFinder": 10,
                      "confirmedTuition": 10,
                      "createdDate": "2019-12-20T07:05:12.959Z",
                      "tutor": {
                        "id": 15,
                        "avatar": null,
                        "displayName": "Nguyen Huu Tu",
                        "email": "tunhbd1998@gmail.com",
                        "phone": null,
                        "birthday": null,
                        "gender": "other",
                        "role": "tutor"
                      },
                      "finder": {
                        "id": 15,
                        "avatar": null,
                        "displayName": "Nguyen Huu Tu",
                        "email": "tunhbd1998@gmail.com",
                        "phone": null,
                        "birthday": null,
                        "gender": "other",
                        "role": "tutor"
                      }
                    }
                  ]
                }
              }
            }
          }
        }
      },
      "post": {
        "tags": ["contract apis"],
        "description": "Finder create new contract",
        "parameters": [],
        "requestBody": {
          "required": true,
          "content": {
            "application/json": {
              "schema": {
                "$ref": "#/components/schemas/CreateContractDTO"
              }
            }
          }
        },
        "responses": {
          "400": {
            "description": "Bad request"
          },
          "401": {
            "description": "unauthorizated"
          },
          "403": {
            "description": "Locked account"
          },
          "403 -": {
            "description": "Account has not authorizated email yet",
            "content": {
              "application/json": {
                "schema": {
                  "type": "object",
                  "properties": {
                    "unauthorizatedEmail": {
                      "type": "boolean",
                      "default": true
                    }
                  }
                },
                "example": {
                  "unauthorizatedEmail": true
                }
              }
            }
          },
          "403 - -": {
            "description": "Account do not allow with this role",
            "content": {
              "application/json": {
                "schema": {
                  "type": "object",
                  "properties": {
                    "roleNotAllowed": {
                      "type": "boolean",
                      "default": true
                    }
                  }
                },
                "example": {
                  "roleNotAllowed": true
                }
              }
            }
          },
          "200": {
            "content": {
              "application/json": {
                "schema": {
                  "type": "object",
                  "properties": {
                    "status": {
                      "type": "boolean"
                    },
                    "contract": {
                      "$ref": "#/components/schemas/Contract"
                    },
                    "message": {
                      "type": "string"
                    }
                  }
                },
                "examples": [
                  {
                    "value": {
                      "status": true,
                      "contract": {
                        "teach": "Toán lớp 10",
                        "tuition": 1000,
                        "tutorId": 15,
                        "tuitionOfFinder": 1000,
                        "tutor": {
                          "id": 15,
                          "avatar": null,
                          "displayName": "Nguyen Huu Tu",
                          "gender": "other",
                          "role": "tutor"
                        },
                        "finder": {
                          "id": 14,
                          "avatar": null,
                          "displayName": "Tu Huu",
                          "gender": "other",
                          "role": "finder"
                        },
                        "id": 6,
                        "status": 0,
                        "numberOfSession": 0,
                        "numberOfHourPerSession": 0,
                        "confirmedTuition": 0,
                        "signRequestOfFinder": false,
                        "signRequestOfTutor": false,
                        "createdDate": "2019-12-21T20:37:58.230Z",
                        "updatedDate": "2019-12-21T20:37:58.230Z",
                        "delete": false
                      },
                      "message": "Đăng ký hợp đồng thành công"
                    }
                  },
                  {
                    "value": {
                      "status": false,
                      "contract": null,
                      "message": "Không thể đăng ký hợp đồng"
                    }
                  }
                ]
              }
            }
          }
        }
      }
    }
  }
}
